module gitlab.com/xiaofangjian/go.foundation

go 1.18

require (
	github.com/BurntSushi/toml v0.4.1
	gorm.io/driver/mysql v1.1.2
	gorm.io/gorm v1.21.15
)

require (
	github.com/go-sql-driver/mysql v1.6.0 // indirect
	github.com/jinzhu/inflection v1.0.0 // indirect
	github.com/jinzhu/now v1.1.2 // indirect
)
